^C:\USERS\ТЫКВА\SOURCE\REPOS\HOMEWORK_15\HOMEWORK_15.CPP
C:\WINDOWS\GLOBALIZATION\SORTING\SORTDEFAULT.NLS
C:\WINDOWS\SYSTEM32\RSAENH.DLL
D:\VISUAL STUDIO\VC\TOOLS\MSVC\14.28.29333\BIN\HOSTX86\X86\1033\CLUI.DLL
C:\WINDOWS\SYSTEM32\TZRES.DLL
D:\VISUAL STUDIO\VC\TOOLS\MSVC\14.28.29333\INCLUDE\IOSTREAM
D:\VISUAL STUDIO\VC\TOOLS\MSVC\14.28.29333\INCLUDE\YVALS_CORE.H
D:\VISUAL STUDIO\VC\TOOLS\MSVC\14.28.29333\INCLUDE\VCRUNTIME.H
D:\VISUAL STUDIO\VC\TOOLS\MSVC\14.28.29333\INCLUDE\SAL.H
D:\VISUAL STUDIO\VC\TOOLS\MSVC\14.28.29333\INCLUDE\CONCURRENCYSAL.H
D:\VISUAL STUDIO\VC\TOOLS\MSVC\14.28.29333\INCLUDE\VADEFS.H
D:\VISUAL STUDIO\VC\TOOLS\MSVC\14.28.29333\INCLUDE\XKEYCHECK.H
D:\VISUAL STUDIO\VC\TOOLS\MSVC\14.28.29333\INCLUDE\ISTREAM
D:\VISUAL STUDIO\VC\TOOLS\MSVC\14.28.29333\INCLUDE\OSTREAM
D:\VISUAL STUDIO\VC\TOOLS\MSVC\14.28.29333\INCLUDE\IOS
D:\VISUAL STUDIO\VC\TOOLS\MSVC\14.28.29333\INCLUDE\XLOCNUM
D:\VISUAL STUDIO\VC\TOOLS\MSVC\14.28.29333\INCLUDE\CLIMITS
D:\VISUAL STUDIO\VC\TOOLS\MSVC\14.28.29333\INCLUDE\LIMITS.H
D:\VISUAL STUDIO\VC\TOOLS\MSVC\14.28.29333\INCLUDE\CMATH
D:\VISUAL STUDIO\VC\TOOLS\MSVC\14.28.29333\INCLUDE\YVALS.H
C:\PROGRAM FILES (X86)\WINDOWS KITS\10\INCLUDE\10.0.18362.0\UCRT\CRTDBG.H
C:\PROGRAM FILES (X86)\WINDOWS KITS\10\INCLUDE\10.0.18362.0\UCRT\CORECRT.H
D:\VISUAL STUDIO\VC\TOOLS\MSVC\14.28.29333\INCLUDE\VCRUNTIME_NEW_DEBUG.H
D:\VISUAL STUDIO\VC\TOOLS\MSVC\14.28.29333\INCLUDE\VCRUNTIME_NEW.H
D:\VISUAL STUDIO\VC\TOOLS\MSVC\14.28.29333\INCLUDE\CRTDEFS.H
D:\VISUAL STUDIO\VC\TOOLS\MSVC\14.28.29333\INCLUDE\USE_ANSI.H
D:\VISUAL STUDIO\VC\TOOLS\MSVC\14.28.29333\INCLUDE\CSTDLIB
C:\PROGRAM FILES (X86)\WINDOWS KITS\10\INCLUDE\10.0.18362.0\UCRT\MATH.H
C:\PROGRAM FILES (X86)\WINDOWS KITS\10\INCLUDE\10.0.18362.0\UCRT\CORECRT_MATH.H
C:\PROGRAM FILES (X86)\WINDOWS KITS\10\INCLUDE\10.0.18362.0\UCRT\STDLIB.H
C:\PROGRAM FILES (X86)\WINDOWS KITS\10\INCLUDE\10.0.18362.0\UCRT\CORECRT_MALLOC.H
C:\PROGRAM FILES (X86)\WINDOWS KITS\10\INCLUDE\10.0.18362.0\UCRT\CORECRT_SEARCH.H
C:\PROGRAM FILES (X86)\WINDOWS KITS\10\INCLUDE\10.0.18362.0\UCRT\STDDEF.H
C:\PROGRAM FILES (X86)\WINDOWS KITS\10\INCLUDE\10.0.18362.0\UCRT\CORECRT_WSTDLIB.H
D:\VISUAL STUDIO\VC\TOOLS\MSVC\14.28.29333\INCLUDE\XTR1COMMON
D:\VISUAL STUDIO\VC\TOOLS\MSVC\14.28.29333\INCLUDE\CSTDIO
C:\PROGRAM FILES (X86)\WINDOWS KITS\10\INCLUDE\10.0.18362.0\UCRT\STDIO.H
C:\PROGRAM FILES (X86)\WINDOWS KITS\10\INCLUDE\10.0.18362.0\UCRT\CORECRT_WSTDIO.H
C:\PROGRAM FILES (X86)\WINDOWS KITS\10\INCLUDE\10.0.18362.0\UCRT\CORECRT_STDIO_CONFIG.H
D:\VISUAL STUDIO\VC\TOOLS\MSVC\14.28.29333\INCLUDE\ITERATOR
D:\VISUAL STUDIO\VC\TOOLS\MSVC\14.28.29333\INCLUDE\IOSFWD
D:\VISUAL STUDIO\VC\TOOLS\MSVC\14.28.29333\INCLUDE\CSTRING
C:\PROGRAM FILES (X86)\WINDOWS KITS\10\INCLUDE\10.0.18362.0\UCRT\STRING.H
C:\PROGRAM FILES (X86)\WINDOWS KITS\10\INCLUDE\10.0.18362.0\UCRT\CORECRT_MEMORY.H
C:\PROGRAM FILES (X86)\WINDOWS KITS\10\INCLUDE\10.0.18362.0\UCRT\CORECRT_MEMCPY_S.H
C:\PROGRAM FILES (X86)\WINDOWS KITS\10\INCLUDE\10.0.18362.0\UCRT\ERRNO.H
D:\VISUAL STUDIO\VC\TOOLS\MSVC\14.28.29333\INCLUDE\VCRUNTIME_STRING.H
C:\PROGRAM FILES (X86)\WINDOWS KITS\10\INCLUDE\10.0.18362.0\UCRT\CORECRT_WSTRING.H
D:\VISUAL STUDIO\VC\TOOLS\MSVC\14.28.29333\INCLUDE\CWCHAR
C:\PROGRAM FILES (X86)\WINDOWS KITS\10\INCLUDE\10.0.18362.0\UCRT\WCHAR.H
C:\PROGRAM FILES (X86)\WINDOWS KITS\10\INCLUDE\10.0.18362.0\UCRT\CORECRT_WCONIO.H
C:\PROGRAM FILES (X86)\WINDOWS KITS\10\INCLUDE\10.0.18362.0\UCRT\CORECRT_WCTYPE.H
C:\PROGRAM FILES (X86)\WINDOWS KITS\10\INCLUDE\10.0.18362.0\UCRT\CORECRT_WDIRECT.H
C:\PROGRAM FILES (X86)\WINDOWS KITS\10\INCLUDE\10.0.18362.0\UCRT\CORECRT_WIO.H
C:\PROGRAM FILES (X86)\WINDOWS KITS\10\INCLUDE\10.0.18362.0\UCRT\CORECRT_SHARE.H
C:\PROGRAM FILES (X86)\WINDOWS KITS\10\INCLUDE\10.0.18362.0\UCRT\CORECRT_WPROCESS.H
C:\PROGRAM FILES (X86)\WINDOWS KITS\10\INCLUDE\10.0.18362.0\UCRT\CORECRT_WTIME.H
C:\PROGRAM FILES (X86)\WINDOWS KITS\10\INCLUDE\10.0.18362.0\UCRT\SYS\STAT.H
C:\PROGRAM FILES (X86)\WINDOWS KITS\10\INCLUDE\10.0.18362.0\UCRT\SYS\TYPES.H
D:\VISUAL STUDIO\VC\TOOLS\MSVC\14.28.29333\INCLUDE\XSTDDEF
D:\VISUAL STUDIO\VC\TOOLS\MSVC\14.28.29333\INCLUDE\CSTDDEF
D:\VISUAL STUDIO\VC\TOOLS\MSVC\14.28.29333\INCLUDE\INITIALIZER_LIST
D:\VISUAL STUDIO\VC\TOOLS\MSVC\14.28.29333\INCLUDE\XUTILITY
D:\VISUAL STUDIO\VC\TOOLS\MSVC\14.28.29333\INCLUDE\UTILITY
D:\VISUAL STUDIO\VC\TOOLS\MSVC\14.28.29333\INCLUDE\TYPE_TRAITS
D:\VISUAL STUDIO\VC\TOOLS\MSVC\14.28.29333\INCLUDE\STREAMBUF
D:\VISUAL STUDIO\VC\TOOLS\MSVC\14.28.29333\INCLUDE\XIOSBASE
C:\PROGRAM FILES (X86)\WINDOWS KITS\10\INCLUDE\10.0.18362.0\UCRT\SHARE.H
D:\VISUAL STUDIO\VC\TOOLS\MSVC\14.28.29333\INCLUDE\SYSTEM_ERROR
D:\VISUAL STUDIO\VC\TOOLS\MSVC\14.28.29333\INCLUDE\__MSVC_SYSTEM_ERROR_ABI.HPP
D:\VISUAL STUDIO\VC\TOOLS\MSVC\14.28.29333\INCLUDE\CERRNO
D:\VISUAL STUDIO\VC\TOOLS\MSVC\14.28.29333\INCLUDE\STDEXCEPT
D:\VISUAL STUDIO\VC\TOOLS\MSVC\14.28.29333\INCLUDE\EXCEPTION
C:\PROGRAM FILES (X86)\WINDOWS KITS\10\INCLUDE\10.0.18362.0\UCRT\MALLOC.H
D:\VISUAL STUDIO\VC\TOOLS\MSVC\14.28.29333\INCLUDE\VCRUNTIME_EXCEPTION.H
D:\VISUAL STUDIO\VC\TOOLS\MSVC\14.28.29333\INCLUDE\EH.H
C:\PROGRAM FILES (X86)\WINDOWS KITS\10\INCLUDE\10.0.18362.0\UCRT\CORECRT_TERMINATE.H
D:\VISUAL STUDIO\VC\TOOLS\MSVC\14.28.29333\INCLUDE\XSTRING
D:\VISUAL STUDIO\VC\TOOLS\MSVC\14.28.29333\INCLUDE\XMEMORY
D:\VISUAL STUDIO\VC\TOOLS\MSVC\14.28.29333\INCLUDE\CSTDINT
D:\VISUAL STUDIO\VC\TOOLS\MSVC\14.28.29333\INCLUDE\STDINT.H
D:\VISUAL STUDIO\VC\TOOLS\MSVC\14.28.29333\INCLUDE\LIMITS
D:\VISUAL STUDIO\VC\TOOLS\MSVC\14.28.29333\INCLUDE\CFLOAT
C:\PROGRAM FILES (X86)\WINDOWS KITS\10\INCLUDE\10.0.18362.0\UCRT\FLOAT.H
D:\VISUAL STUDIO\VC\TOOLS\MSVC\14.28.29333\INCLUDE\INTRIN0.H
D:\VISUAL STUDIO\VC\TOOLS\MSVC\14.28.29333\INCLUDE\ISA_AVAILABILITY.H
D:\VISUAL STUDIO\VC\TOOLS\MSVC\14.28.29333\INCLUDE\NEW
D:\VISUAL STUDIO\VC\TOOLS\MSVC\14.28.29333\INCLUDE\XATOMIC.H
D:\VISUAL STUDIO\VC\TOOLS\MSVC\14.28.29333\INCLUDE\XCALL_ONCE.H
D:\VISUAL STUDIO\VC\TOOLS\MSVC\14.28.29333\INCLUDE\XERRC.H
D:\VISUAL STUDIO\VC\TOOLS\MSVC\14.28.29333\INCLUDE\ATOMIC
D:\VISUAL STUDIO\VC\TOOLS\MSVC\14.28.29333\INCLUDE\XTHREADS.H
D:\VISUAL STUDIO\VC\TOOLS\MSVC\14.28.29333\INCLUDE\XTIMEC.H
C:\PROGRAM FILES (X86)\WINDOWS KITS\10\INCLUDE\10.0.18362.0\UCRT\TIME.H
D:\VISUAL STUDIO\VC\TOOLS\MSVC\14.28.29333\INCLUDE\XLOCALE
D:\VISUAL STUDIO\VC\TOOLS\MSVC\14.28.29333\INCLUDE\MEMORY
D:\VISUAL STUDIO\VC\TOOLS\MSVC\14.28.29333\INCLUDE\TYPEINFO
D:\VISUAL STUDIO\VC\TOOLS\MSVC\14.28.29333\INCLUDE\VCRUNTIME_TYPEINFO.H
D:\VISUAL STUDIO\VC\TOOLS\MSVC\14.28.29333\INCLUDE\XFACET
D:\VISUAL STUDIO\VC\TOOLS\MSVC\14.28.29333\INCLUDE\XLOCINFO
D:\VISUAL STUDIO\VC\TOOLS\MSVC\14.28.29333\INCLUDE\XLOCINFO.H
C:\PROGRAM FILES (X86)\WINDOWS KITS\10\INCLUDE\10.0.18362.0\UCRT\CTYPE.H
C:\PROGRAM FILES (X86)\WINDOWS KITS\10\INCLUDE\10.0.18362.0\UCRT\LOCALE.H
